INDEX VERSION 1.131+C:\Users\mrbhatta.ORADEV\eclipse-workspace\.metadata\.plugins\org.eclipse.jdt.core
1713766596.index
4232180134.index
710797068.index
2043626465.index
3236908651.index
2604305992.index
1509276984.index
3894966029.index
3395085973.index
823384711.index
1360918719.index
3275956591.index
3105448759.index
3043782034.index
31033110.index
1218655967.index
3602116116.index
3876293863.index
916900781.index
888975005.index
3094668108.index
3678484531.index
3993196276.index
3519506127.index
766895359.index
2823841180.index
1177904427.index
2198028712.index
2002025702.index
3270234660.index
3042767403.index
2523574489.index
560793849.index
4121661813.index
4256871307.index
2520424678.index
4171754956.index
2986570082.index
2025109953.index
2361341035.index
3861951690.index
1764544606.index
730851609.index
3856588546.index
1855870726.index
10993476.index
1204375214.index
1302336042.index
3306656963.index
1127233620.index
1998282978.index
3610844893.index
4189023607.index
3302067887.index
1494127306.index
1497804593.index
1636262184.index
536497173.index
3018330599.index
2914093000.index
3973382939.index
1897991212.index
2096677707.index
3713366473.index
1913708169.index
1997953505.index
3955276791.index
4004496526.index
3860930858.index
1537110007.index
1765073723.index
894595609.index
3731348879.index
4089261821.index
2569137926.index
806062888.index
3371050721.index
1141473623.index
578590404.index
2754447688.index
2872033403.index
2386082234.index
3171060862.index
1300736947.index
100574398.index
2351662571.index
3487609244.index
890887124.index
1983518836.index
4082955637.index
1133192731.index
3212624358.index
400200335.index
1950699275.index
635703245.index
1579844636.index
3722055970.index
1029330553.index
2409666293.index
138307048.index
2302477852.index
4201420729.index
317609111.index
710713890.index
3609888128.index
616524931.index
332993019.index
2355355590.index
1093488887.index
3273689814.index
3443282153.index
42665393.index
1342478739.index
3363692690.index
688617717.index
2088728460.index
1834884960.index
2438177829.index
2421898088.index
1314180861.index
2365977593.index
2288546641.index
2753767779.index
1187240711.index
